{
	"parts":
	[
		{
			"type":"gameObject",
			"tags":["evilGuy"],
			"components":
			[
				{
					"type":"behaviour",
					"class":"AnimationSwitcherBehaviour"
				},
				{
					"type":"behaviour",
					"class":"EvilGuyTasksBehaviour",
					"minTimeToShow":6,
					"maxTimeToShow":30,
					"speedWalk":1.0,
					"speedRun":2.0,
					"minPiggiesToShowUp":5
				},
				{
					"type":"behaviour",
					"class":"PiggyInventoryBehaviour"
				},
				{
					"type":"taskTarget",
					"modelSpaceBounds":{"i":0,"j":0,"w":0,"h":0},
					"taskType":"useField",
					"slots":[
						{"i": 0, "j":-1, "properties":{
							"animName":"toil",
							"animDir":"dl",
							"offsetI":0.25,
							"offsetJ":-0.25}
						}
					]
				},
				{
					"type":"isoSprite",
					"i":0,
					"j":0,
					"modelSpaceBounds":{"i":-0.08,"j":-0.125,"w":0.3,"h":0.25},
					"properties":
					{
						"touchGroup":false,
						"useHandCursor":false,
						"visible":false
					},
					"children":
					[
						{
							"type":"movieClip",
							"texturePrefix":"walking-creep-front0",
							"x": -8,
							"y":-24,
							"fps":24,
							"properties":
							{
								"name":"normal_dl",
								"visible":false
							}
						},
						{
							"type":"movieClip",
							"texturePrefix":"walking-creep-back0",
							"x": -8,
							"y":-24,
							"fps":24,
							"properties":
							{
								"name":"normal_ul",
								"visible":false
							}
						},
						{
							"type":"movieClip",
							"texturePrefix":"walking-creep-front0",
							"x": 8,
							"y":-24,
							"fps":24,
							"properties":
							{
								"name":"normal_dr",
								"visible":false,
								"scaleX":-1
							}
						},
						{
							"type":"movieClip",
							"texturePrefix":"walking-creep-back0",
							"x": 8,
							"y":-24,
							"fps":24,
							"properties":
							{
								"name":"normal_ur",
								"visible":false,
								"scaleX":-1
							}
						},
						
						
						
						
						{
							"type":"movieClip",
							"texturePrefix":"walking-creep-front-loaded0",
							"x":-8,
							"y":-24,
							"fps":24,
							"properties":
							{
								"name":"normal_dl_loaded",
								"visible":false
							}
						},
						{
							"type":"movieClip",
							"texturePrefix":"walking-creep-back-loaded0",
							"x": 8,
							"y":-24,
							"fps":24,
							"properties":
							{
								"name":"normal_ul_loaded",
								"visible":false
							}
						},
						{
							"type":"movieClip",
							"texturePrefix":"walking-creep-front-loaded0",
							"x":-8,
							"y":-24,
							"fps":24,
							"properties":
							{
								"name":"normal_dr_loaded",
								"visible":false,
								"scaleX":-1
							}
						},
						{
							"type":"movieClip",
							"texturePrefix":"walking-creep-back-loaded0",
							"x": 8,
							"y":-24,
							"fps":24,
							"properties":
							{
								"name":"normal_ur_loaded",
								"visible":false,
								"scaleX":-1
							}
						}
					]
				}
			]
		}
	]
}