{
	"parts":
	[
		{
			"type":"gameObject",
			"tags":["corn","field"],
			"components":
			[
				{
					"type":"isoSprite",
					"i":0,
					"j":0,
					"modelSpaceBounds":{"i":0.035,"j":0.035,"w":0.93,"h":0.93},
					"properties":{"touchable":true,"touchGroup":false},
					"children":
					[
						{
							"type":"image",
							"texture":"fieldGroundLVL3",
							"x":-33.5,
							"y":-0.5,
							"properties":{"touchable":false}
						},
						{
							"type":"image",
							"texture":"cornFieldLvl1",
							"x":-34,
							"y":-30,
							"properties":{
								"name":"level0",
								"visible":false,
								"touchable":false
							}
						},
						{
							"type":"image",
							"texture":"cornFieldLvl2",
							"x":-34,
							"y":-28,
							"properties":{
								"name":"level1",
								"visible":false,
								"touchable":false
							}
						},
						{
							"type":"image",
							"texture":"cornFieldLvl3",
							"x":-34,
							"y":-28,
							"properties":{
								"name":"level2",
								"visible":false,
								"touchable":false
							}
						},
						{
							"type":"image",
							"texture":"move",
							"x":2,
							"y":-16,
							"properties":{"name":"move", "visible":false, "touchable":true, "useHandCursor":true}
						}
					]
				},
				{
					"type":"specialNode",
					"i":0,
					"j":0,
					"blockUp":true,
					"blockDown":false,
					"blockLeft":true,
					"blockRight":false
				},
				{
					"type":"specialNode",
					"i":1,
					"j":0,
					"blockUp":true,
					"blockDown":false,
					"blockLeft":false,
					"blockRight":true
				},
				{
					"type":"specialNode",
					"i":1,
					"j":1,
					"blockUp":false,
					"blockDown":true,
					"blockLeft":false,
					"blockRight":true
				},
				{
					"type":"specialNode",
					"i":0,
					"j":1,
					"blockUp":false,
					"blockDown":true,
					"blockLeft":true,
					"blockRight":false
				},
				{
					"type":"specialNodeBlock",
					"i":0,
					"j":0,
					"w":2,
					"h":2,
					"blockUp":false,
					"blockDown":false,
					"blockLeft":false,
					"blockRight":false,
					"occupiedType":"*"
				},
				{
					"type":"taskTarget",
					"modelSpaceBounds":{"i":0,"j":0,"w":1,"h":1},
					"taskType":"useField",
					"slots":[
						{"i": 0, "j":-1, "properties":{
							"animName":"toil",
							"animDir":"dl",
							"offsetI":0.25,
							"offsetJ":-0.25}
						},
						{"i": 1, "j":-1, "properties":{
							"animName":"toil",
							"animDir":"dl",
							"offsetI":0.75,
							"offsetJ":-0.25}
						},
						{"i": 2, "j": 0, "properties":{
							"animName":"toil",
							"animDir":"ul",
							"offsetI":1.25,
							"offsetJ":0.25}
						},
						{"i": 2, "j": 1, "properties":{
							"animName":"toil",
							"animDir":"ul",
							"offsetI":1.25,
							"offsetJ":0.75}
						},
						{"i": 0, "j": 2, "properties":{
							"animName":"toil",
							"animDir":"ur",
							"offsetI":0.25,
							"offsetJ":1.25}
						},
						{"i": 1, "j": 2, "properties":{
							"animName":"toil",
							"animDir":"ur",
							"offsetI":0.75,
							"offsetJ":1.25}
						},
						{"i":-1, "j": 1, "properties":{
							"animName":"toil",
							"animDir":"dr",
							"offsetI":-0.25,
							"offsetJ":0.75}
						},
						{"i":-1, "j": 0, "properties":{
							"animName":"toil",
							"animDir":"dr",
							"offsetI":-0.25,
							"offsetJ":0.25}
						}
					]
				},
				{
					"type":"behaviour",
					"class":"FieldBehaviour",
					"levels":3,
					"produceCount":9,
					"harvestTime":8,
					"mustPlant":true,
					"produce":"Corn",
					"givesEnergy": 0.5
				},
				{
					"type":"behaviour",
					"class":"FieldPersistBehaviour"
				},
				{
					"type":"behaviour",
					"class":"MovableBehaviour",
					"placeOnTopOf":[],
					"w":1,
					"h":1
				},
				{
					"type":"behaviour",
					"class":"ProgressBehaviour",
					"useColors":false
				}
			]
		}
	]
}