{
	"parts":
	[
		{
			"type":"gameObject",
			"tags":["house"],
			"components":
			[
				{
					"type":"behaviour",
					"class":"UpgradableBehaviour",
					"description":"Can house more piggies",
					"cost":760,
					"recipe":"houseLvl3"
				},
				{
					"type":"behaviour",
					"class":"HouseHoverHideBehaviour",
					"modelSpaceBounds":{"i":0,"j":0,"w":2,"h":2}
				},
				{
					"type":"isoSprite",
					"i":0,
					"j":0,
					"layer":"below",
					"modelSpaceBounds":{"i":0,"j":0,"w":2,"h":2},
					"properties":{"touchable":true,"touchGroup":false},
					"children":
					[
						{
							"type":"image",
							"texture":"houseLvl2",
							"x":-60,
							"y":-27,
							"properties":{"name":"overlayBottom", "touchable":false}
						},
						{
							"type":"image",
							"texture":"houseLvl2Outside",
							"x":-60,
							"y":-27,
							"properties":{"name":"overlay", "visible":false, "touchable":false}
						},
						{
							"type":"image",
							"texture":"upgrade",
							"x":-15.5,
							"y":-20,
							"properties":{"name":"upgrade", "visible":false, "touchable":true, "useHandCursor":true}
						},
						{
							"type":"image",
							"texture":"move",
							"x":8,
							"y":-20,
							"properties":{"name":"move", "visible":false, "touchable":true, "useHandCursor":true}
						}
					]
				},
				{
					"type":"specialNodeBlock",
					"i":0,
					"j":0,
					"w":1,
					"h":4,
					"blockUp":false,
					"blockDown":false,
					"blockLeft":true,
					"blockRight":true
				},
				{
					"type":"specialNodeBlock",
					"i":3,
					"j":0,
					"w":1,
					"h":4,
					"blockUp":false,
					"blockDown":false,
					"blockLeft":true,
					"blockRight":true
				},
				{
					"type":"specialNodeBlock",
					"i":0,
					"j":0,
					"w":4,
					"h":0,
					"blockUp":true,
					"blockDown":false,
					"blockLeft":false,
					"blockRight":false
				},
				{
					"type":"specialNode",
					"i":0,
					"j":3,
					"blockUp":false,
					"blockDown":true,
					"blockLeft":false,
					"blockRight":false
				},
				{
					"type":"specialNode",
					"i":3,
					"j":3,
					"blockUp":false,
					"blockDown":true,
					"blockLeft":false,
					"blockRight":false
				},
				{
					"type":"specialNodeBlock",
					"i":0,
					"j":0,
					"w":4,
					"h":1,
					"blockUp":true,
					"blockDown":true,
					"blockLeft":false,
					"blockRight":false
				},
				{
					"type":"specialNodeBlock",
					"i":0,
					"j":0,
					"w":4,
					"h":4,
					"blockUp":false,
					"blockDown":false,
					"blockLeft":false,
					"blockRight":false,
					"occupiedType":"*"
				},

				{
					"type":"taskTarget",
					"modelSpaceBounds":{"i":0,"j":0,"w":2,"h":2},
					"taskType":"sleep",
					"slots":[
						{"i":1, "j":2, "properties":{
							"animName":"sleeping",
							"animDir":"dr",
							"offsetI":0.55,
							"offsetJ":1.00}
						},
						{"i":2, "j":2, "properties":{
							"animName":"sleeping",
							"animDir":"dl",
							"offsetI":0.75,
							"offsetJ":0.70}
						},
						{"i":2, "j":3, "properties":{
							"animName":"sleeping",
							"animDir":"dl",
							"offsetI":1.1,
							"offsetJ":0.70}
						},
						{"i":2, "j":4, "properties":{
							"animName":"sleeping",
							"animDir":"dl",
							"offsetI":1.45,
							"offsetJ":0.70}
						},
						{"i":2, "j":4, "properties":{
							"animName":"sleeping",
							"animDir":"dl",
							"offsetI":1.45,
							"offsetJ":1.20}
						}
					]
				},
				{
					"type":"behaviour",
					"class":"MovableBehaviour",
					"placeOnTopOf":[],
					"w":2,
					"h":2
				}
			]
		}
	]
}