{
	"parts":
	[
		{
			"type":"gameObject",
			"tags":["kitchen"],
			"components":
			[
				{
					"type":"behaviour",
					"class":"UpgradableBehaviour",
					"description":"Enhance the kitchen to make more products",
					"cost":980,
					"recipe":"kitchenLvl3"
				},
				{
					"type":"isoSprite",
					"i":0,
					"j":0,
					"modelSpaceBounds":{"i":0.1,"j":0.1,"w":0.3,"h":0.3},
					"properties":{"touchable":true,"touchGroup":false},
					"children":
					[
						{
							"type":"image",
							"texture":"kitchenLvl2",
							"x":-21,
							"y":-10,
							"properties":{"touchable":false}
						},
						{
							"type":"image",
							"texture":"upgrade",
							"x":-16,
							"y":-16,
							"properties":{"name":"upgrade", "visible":false, "touchable":true, "useHandCursor":true}
						},
						{
							"type":"image",
							"texture":"move",
							"x":2,
							"y":-16,
							"properties":{"name":"move", "visible":false, "touchable":true, "useHandCursor":true}
						},
						
						
						
						
						{
							"type":"image",
							"texture":"kitchen_balloon_2",
							"properties":
							{
								"name":"kitchen_balloon",
								"touchable":false,
								"visible":false
							}
						},
						{
							"type":"image",
							"texture":"kitchen_balloon_2_spacer",
							"properties":
							{
								"name":"kitchen_balloon_spacer_0",
								"touchable":true,
								"visible":false,
								"useHandCursor":true
							}
						},
						{
							"type":"image",
							"texture":"kitchen_balloon_2_spacer",
							"properties":
							{
								"name":"kitchen_balloon_spacer_1",
								"touchable":true,
								"visible":false,
								"useHandCursor":true
							}
						},
						{
							"type":"image",
							"texture":"kitchen_balloon_2_spacer",
							"properties":
							{
								"name":"kitchen_balloon_spacer_2",
								"touchable":true,
								"visible":false,
								"useHandCursor":true
							}
						},
						{
							"type":"image",
							"texture":"kitchen_balloon_2_spacer",
							"properties":
							{
								"name":"kitchen_balloon_spacer_3",
								"touchable":true,
								"visible":false,
								"useHandCursor":true
							}
						},
						{
							"type":"image",
							"texture":"kitchen_balloon_2_spacer",
							"properties":
							{
								"name":"kitchen_balloon_spacer_4",
								"touchable":true,
								"visible":false,
								"useHandCursor":true
							}
						},
						{
							"type":"image",
							"texture":"kitchen_balloon_2_spacer",
							"properties":
							{
								"name":"kitchen_balloon_spacer_5",
								"touchable":true,
								"visible":false,
								"useHandCursor":true
							}
						},
						{
							"type":"image",
							"texture":"kitchen_balloon_2_spacer",
							"properties":
							{
								"name":"kitchen_balloon_spacer_6",
								"touchable":true,
								"visible":false,
								"useHandCursor":true
							}
						}
					]
				},
				{
					"type":"specialNode",
					"i":0,
					"j":0,
					"blockUp":true,
					"blockDown":true,
					"blockLeft":true,
					"blockRight":true
				},
				{
					"type":"specialNodeBlock",
					"i":0,
					"j":0,
					"w":2,
					"h":2,
					"blockUp":false,
					"blockDown":false,
					"blockLeft":false,
					"blockRight":false,
					"occupiedType":"*"
				},
				{
					"type":"taskTarget",
					"modelSpaceBounds":{"i":0,"j":0,"w":0.5,"h":1},
					"taskType":"bake",
					"slots":[
						{"i":1, "j":0, "properties":{
							"animName":"working",
							"animDir":"ul",
							"offsetI":0.50,
							"offsetJ":0.18}
						}
					]
				},
				{
					"type":"behaviour",
					"class":"MovableBehaviour",
					"placeOnTopOf":["factory"],
					"w":1,
					"h":1
				}
			]
		}
	]
}