{
	"parts":
	[
	
		
		{
			"type":"gameObject",
			"tags":["shop"],
			"components":
			[
				{
					"type":"behaviour",
					"class":"ShopFillingBehaviour"
				},
				{
					"type":"isoSprite",
					"i":0,
					"j":0,
					"layer":"below",
					"modelSpaceBounds":{"i":0,"j":0,"w":1,"h":1},
					"properties":{"touchable":false,"touchGroup":true},
					"children":
					[
						{
							"type":"image",
							"texture":"shopOpenStorage0",
							"x":-32,
							"y":-31,
							"properties":{"name":"shopOpenStorage0", "touchable":false}
						},
						{
							"type":"image",
							"texture":"shopOpenStorage1",
							"x":-32,
							"y":-31,
							"properties":{"name":"shopOpenStorage1", "touchable":false, "visible":false}
						},
						{
							"type":"image",
							"texture":"shopOpenStorage2",
							"x":-32,
							"y":-31,
							"properties":{"name":"shopOpenStorage2", "touchable":false, "visible":false}
						},
						{
							"type":"image",
							"texture":"shopOpenStorage3",
							"x":-32,
							"y":-31,
							"properties":{"name":"shopOpenStorage3", "touchable":false, "visible":false}
						},
						{
							"type":"image",
							"texture":"shopOpenStorage4",
							"x":-32,
							"y":-31,
							"properties":{"name":"shopOpenStorage4", "touchable":false, "visible":false}
						}
					]
				},

				{
					"type":"taskTarget",
					"modelSpaceBounds":{"i":-0.2,"j":0.3,"w":1.25,"h":0.65},
					"taskType":"sell",
					"slots":[
						{"i":0, "j":0, "properties":{
							"animName":"toil",
							"animDir":"dl",
							"offsetI":0.25,
							"offsetJ":0.40}
						},
						{"i":1, "j":0, "properties":{
							"animName":"toil",
							"animDir":"dl",
							"offsetI":0.65,
							"offsetJ":0.40}
						}
					]
				},

				{
					"type":"specialNode",
					"i":0,
					"j":1,
					"blockUp":false,
					"blockDown":true,
					"blockLeft":true,
					"blockRight":false
				},
				{
					"type":"specialNode",
					"i":1,
					"j":1,
					"blockUp":false,
					"blockDown":true,
					"blockLeft":false,
					"blockRight":true
				},
				{
					"type":"specialNodeBlock",
					"i":0,
					"j":0,
					"w":2,
					"h":2,
					"blockUp":false,
					"blockDown":false,
					"blockLeft":false,
					"blockRight":false,
					"occupiedType":"*"
				}
			]
		},
		
		
		
		{
			"type":"gameObject",
			"components":
			[
				{
					"type":"behaviour",
					"class":"HouseHoverHideBehaviour",
					"modelSpaceBounds":{"i":0,"j":0,"w":2,"h":2}
				},
				{
					"type":"isoSprite",
					"i":0,
					"j":0,
					"layer":"cover",
					"modelSpaceBounds":{"i":0,"j":0,"w":1,"h":1},
					"properties":{"touchable":true,"touchGroup":false},
					"children":
					[
						{
							"type":"image",
							"texture":"shopFront",
							"x":-32,
							"y":-31,
							"properties":{"name":"overlay", "touchable":true}
						}
					]
				}
			]
		}
	]
}