{
	"parts":
	[
		{
			"type":"gameObject",
			"tags":["storage"],
			"components":
			[
				{
					"type":"behaviour",
					"class":"StorageBehaviour",
					"capacity":50
				},
				{
					"type":"behaviour",
					"class":"StorageUiBehaviour"
				},
				{
					"type":"behaviour",
					"class":"StoragePersistBehaviour"
				},
				{
					"type":"isoSprite",
					"i":0,
					"j":0,
					"modelSpaceBounds":{"i":0.1,"j":0.1,"w":0.3,"h":0.3},
					"properties":{"touchable":true,"touchGroup":false},
					"children":
					[
						{
							"type":"image",
							"texture":"storageLvl1",
							"x":-30,
							"y":-12,
							"properties":{"touchable":false}
						},
						{
							"type":"image",
							"texture":"upgrade",
							"x":-18,
							"y":-20,
							"properties":{"name":"upgrade", "visible":false, "touchable":true, "useHandCursor":true}
						},
						{
							"type":"image",
							"texture":"move",
							"x":2,
							"y":-20,
							"properties":{"name":"move", "visible":false, "touchable":true, "useHandCursor":true}
						}
					]
				},

				{
					"type":"specialNode",
					"i":0,
					"j":0,
					"blockUp":true,
					"blockDown":true,
					"blockLeft":true,
					"blockRight":true
				},
				{
					"type":"specialNodeBlock",
					"i":0,
					"j":0,
					"w":2,
					"h":2,
					"blockUp":false,
					"blockDown":false,
					"blockLeft":false,
					"blockRight":false,
					"occupiedType":"*"
				},
				{
					"type":"taskTarget",
					"modelSpaceBounds":{"i":0,"j":0,"w":0.5,"h":1},
					"taskType":"store",
					"maxUsers":-1,
					"slots":[
						{"i":1, "j":0, "properties":{
							"animName":"toil",
							"animDir":"ur",
							"offsetI":0.75,
							"offsetJ":0.75}
						},
						{"i":1, "j":1, "properties":{
							"animName":"toil",
							"animDir":"ul",
							"offsetI":0.75,
							"offsetJ":0.75}
						}
					]
				},
				{
					"type":"behaviour",
					"class":"UpgradableBehaviour",
					"description":"Upgrade your storage to level 2. New capacity: 100",
					"cost":100,
					"recipe":"storageLvl2"
				},
				{
					"type":"behaviour",
					"class":"MovableBehaviour",
					"placeOnTopOf":["factory"],
					"w":1,
					"h":1
				},
				
				
				{
					"type":"behaviour",
					"class":"ProgressBehaviour",
					"useColors":true
				}
			]
		}
	]
}