{
	"parts":
	[
		{
			"type":"gameObject",
			"components":
			[
				{
					"type":"isoSprite",
					"i":0,
					"j":0,
					"modelSpaceBounds":{"i":0.25,"j":0.25,"w":0.5,"h":0.5},
					"properties":{"touchable":false,"touchGroup":true},
					"children":
					[
						{
							"type":"image",
							"texture":"tree_3",
							"x":-36,
							"y":-46
						}
					]
				},

				{
					"type":"specialNode",
					"i":0,
					"j":0,
					"blockUp":false,
					"blockDown":true,
					"blockLeft":false,
					"blockRight":true
				},
				{
					"type":"specialNode",
					"i":1,
					"j":1,
					"blockUp":true,
					"blockDown":false,
					"blockLeft":true,
					"blockRight":false
				},
				{
					"type":"specialNodeBlock",
					"i":0,
					"j":0,
					"w":2,
					"h":2,
					"blockUp":false,
					"blockDown":false,
					"blockLeft":false,
					"blockRight":false,
					"occupiedType":"*"
				}
			]
		}
	]
}