{
    "assets": [
		"spritesheets/ui-desktop.xml",
		"spritesheets/ui-desktop.png",
		"spritesheets/map-desktop.xml",
		"spritesheets/map-desktop.png",
		"spritesheets/housing-desktop.xml",
		"spritesheets/housing-desktop.png",
		"spritesheets/objects-desktop.xml",
		"spritesheets/objects-desktop.png",
		"spritesheets/objects2-desktop.xml",
		"spritesheets/objects2-desktop.png",
		"spritesheets/shopicons-desktop.xml",
		"spritesheets/shopicons-desktop.png",
		"spritesheets/tutorial-desktop.xml",
		"spritesheets/tutorial-desktop.png",

		"spritesheets/piggies-desktop.xml",
		"spritesheets/piggies-desktop.png",
		"spritesheets/piggies/mohawk-desktop.xml",
		"spritesheets/piggies/mohawk-desktop.png",
		"spritesheets/piggies/bee-desktop.xml",
		"spritesheets/piggies/bee-desktop.png",
		"spritesheets/piggies/gates-desktop.xml",
		"spritesheets/piggies/gates-desktop.png",
		"spritesheets/piggies/smart-desktop.xml",
		"spritesheets/piggies/smart-desktop.png",
		"spritesheets/piggies/seagal-desktop.xml",
		"spritesheets/piggies/seagal-desktop.png",
		"spritesheets/piggies/hipster-desktop.xml",
		"spritesheets/piggies/hipster-desktop.png",
		"spritesheets/piggies/bolt-desktop.xml",
		"spritesheets/piggies/bolt-desktop.png",
		"spritesheets/piggies/michell-desktop.xml",
		"spritesheets/piggies/michell-desktop.png",
		"spritesheets/piggies/oliver-desktop.xml",
		"spritesheets/piggies/oliver-desktop.png",
		"spritesheets/piggies/ramsey-desktop.xml",
		"spritesheets/piggies/ramsey-desktop.png",
		"spritesheets/piggies/miss-desktop.xml",
		"spritesheets/piggies/miss-desktop.png",
		"spritesheets/piggies/penny-desktop.xml",
		"spritesheets/piggies/penny-desktop.png",
		"spritesheets/piggies/pretty-desktop.xml",
		"spritesheets/piggies/pretty-desktop.png",
		"spritesheets/piggies/ralf-desktop.xml",
		"spritesheets/piggies/ralf-desktop.png",
		"spritesheets/piggies/turbo-desktop.xml",
		"spritesheets/piggies/turbo-desktop.png",
		"spritesheets/piggies/vries-desktop.xml",
		"spritesheets/piggies/vries-desktop.png",
		"spritesheets/piggies/thief-desktop.xml",
		"spritesheets/piggies/thief-desktop.png",
		"spritesheets/piggies/spears-desktop.xml",
		"spritesheets/piggies/spears-desktop.png",
		"spritesheets/piggies/smalls-desktop.xml",
		"spritesheets/piggies/smalls-desktop.png",
		
		"spritesheets/evil-guy.xml",
		"spritesheets/evil-guy.png",
		"spritesheets/evil-factory-desktop.xml",
		"spritesheets/evil-factory-desktop.png",
		
		
		"images/marketbg.jpg",

		"fonts/ui-font.png",
		"fonts/ui-font.xml",
		"fonts/ui-button-font.png",
		"fonts/ui-button-font.xml",

		"maps/default.tmx",

		"store/store-items.json",
		"shop/shop-items.json",
		"recipes/tutorial-recipe.json",

		"recipes/factory-recipe.json",
		"recipes/factoryCover-recipe.json",
		"recipes/shop-recipe.json",
		"recipes/houseLvl1-recipe.json",
		"recipes/houseLvl2-recipe.json",
		"recipes/houseLvl3-recipe.json",
		"recipes/evilFactory-recipe.json",
		
		"recipes/piggy-recipe.json",
		"recipes/piggy-mohawk-recipe.json",
		"recipes/piggy-bee-recipe.json",
		"recipes/piggy-gates-recipe.json",
		"recipes/piggy-smart-recipe.json",
		"recipes/piggy-seagal-recipe.json",
		"recipes/piggy-hipster-recipe.json",
		"recipes/piggy-bolt-recipe.json",
		"recipes/piggy-ramsey-recipe.json",
		"recipes/piggy-oliver-recipe.json",
		"recipes/piggy-michell-recipe.json",
		"recipes/piggy-miss-recipe.json",
		"recipes/piggy-penny-recipe.json",
		"recipes/piggy-pretty-recipe.json",
		"recipes/piggy-ralf-recipe.json",
		"recipes/piggy-turbo-recipe.json",
		"recipes/piggy-vries-recipe.json",
		"recipes/piggy-thief-recipe.json",
		"recipes/piggy-spears-recipe.json",
		"recipes/piggy-smalls-recipe.json",
		
		"recipes/prepperLvl1-recipe.json",
		"recipes/prepperLvl2-recipe.json",
		"recipes/prepperLvl3-recipe.json",
		
		"recipes/storageLvl1-recipe.json",
		"recipes/storageLvl2-recipe.json",
		"recipes/storageLvl3-recipe.json",
		
		"recipes/cookerLvl1-recipe.json",
		"recipes/cookerLvl2-recipe.json",
		"recipes/cookerLvl3-recipe.json",
		
		"recipes/kitchenLvl1-recipe.json",
		"recipes/kitchenLvl2-recipe.json",
		"recipes/kitchenLvl3-recipe.json",
		
		"recipes/fieldLupinLvl1-recipe.json",
		"recipes/fieldLupinLvl2-recipe.json",
		"recipes/fieldLupinLvl3-recipe.json",
		
		"recipes/fieldFlourLvl1-recipe.json",
		"recipes/fieldFlourLvl2-recipe.json",
		"recipes/fieldFlourLvl3-recipe.json",
		
		"recipes/fieldCornLvl1-recipe.json",
		"recipes/fieldCornLvl2-recipe.json",
		"recipes/fieldCornLvl3-recipe.json",
		
		"recipes/fieldVegetableLvl1-recipe.json",
		"recipes/fieldVegetableLvl2-recipe.json",
		"recipes/fieldVegetableLvl3-recipe.json",
		
		"recipes/fruitGardenLvl1-recipe.json",
		"recipes/fruitGardenLvl2-recipe.json",
		"recipes/fruitGardenLvl3-recipe.json",
		
		"recipes/flowerGardenLvl1-recipe.json",
		"recipes/flowerGardenLvl2-recipe.json",
		"recipes/flowerGardenLvl3-recipe.json",

		"recipes/mudpoolLvl1-recipe.json",
		"recipes/mudpoolLvl2-recipe.json",
		"recipes/mudpoolLvl3-recipe.json",
		
		"recipes/haystackLvl1-recipe.json",
		"recipes/haystackLvl2-recipe.json",
		"recipes/haystackLvl3-recipe.json",
		
		"recipes/statueLvl1-recipe.json",
		"recipes/statueLvl2-recipe.json",
		"recipes/statueLvl3-recipe.json",
		
		"recipes/guardPost-recipe.json",
		
		"recipes/roadLvl1-recipe.json",
		"recipes/roadLvl2-recipe.json",
		"recipes/roadLvl3-recipe.json",
		
		"recipes/dirtRoad-recipe.json",
		"recipes/dirtRoad2-recipe.json",
		"recipes/dirtRoad3-recipe.json",
		"recipes/dirtRoad4-recipe.json",
		
		"recipes/tree-recipe.json",
		"recipes/tree_1-recipe.json",
		"recipes/tree_2-recipe.json",
		"recipes/tree_3-recipe.json",
		
		"recipes/vegi-sign-recipe.json",
		
		"recipes/evilGuy-recipe.json"
    ]
}