{
	"parts":
	[
		{
			"type":"gameObject",
			"tags":["field","fruit"],
			"components":
			[
				{
					"type":"behaviour",
					"class":"UpgradableBehaviour",
					"description":"Produces more lupin.",
					"cost":620,
					"recipe":"fruitGardenLvl3"
				},
				{
					"type":"isoSprite",
					"i":0,
					"j":0,
					"modelSpaceBounds":{"i":0.035,"j":0.035,"w":0.93,"h":0.93},
					"properties":{"touchable":true,"touchGroup":false},
					"children":
					[
						{
							"type":"image",
							"texture":"fruitGarden_LVL2_empty",
							"x":-31,
							"y":-16,
							"properties":{
								"name":"level0",
								"visible":false,
								"touchable":false
							}
						},
						{
							"type":"image",
							"texture":"fruitGarden_LVL2_fruit",
							"x":-31,
							"y":-16,
							"properties":{
								"name":"level1",
								"visible":false,
								"touchable":false
							}
						},
						{
							"type":"image",
							"texture":"upgrade",
							"x":-16,
							"y":-16,
							"properties":{"name":"upgrade", "visible":false, "touchable":true, "useHandCursor":true}
						},
						{
							"type":"image",
							"texture":"move",
							"x":2,
							"y":-16,
							"properties":{"name":"move", "visible":false, "touchable":true, "useHandCursor":true}
						}
					]
				},
				{
					"type":"specialNode",
					"i":0,
					"j":0,
					"blockUp":true,
					"blockDown":false,
					"blockLeft":true,
					"blockRight":false
				},
				{
					"type":"specialNode",
					"i":1,
					"j":0,
					"blockUp":true,
					"blockDown":false,
					"blockLeft":false,
					"blockRight":true
				},
				{
					"type":"specialNode",
					"i":1,
					"j":1,
					"blockUp":false,
					"blockDown":true,
					"blockLeft":false,
					"blockRight":true
				},
				{
					"type":"specialNode",
					"i":0,
					"j":1,
					"blockUp":false,
					"blockDown":true,
					"blockLeft":true,
					"blockRight":false
				},
				{
					"type":"specialNodeBlock",
					"i":0,
					"j":0,
					"w":2,
					"h":2,
					"blockUp":false,
					"blockDown":false,
					"blockLeft":false,
					"blockRight":false,
					"occupiedType":"*"
				},
				{
					"type":"taskTarget",
					"modelSpaceBounds":{"i":0,"j":0,"w":1,"h":1},
					"taskType":"useField",
					"slots":[
						{"i": 0, "j": 2, "properties":{
							"animName":"toil",
							"animDir":"ur",
							"offsetI":0.25,
							"offsetJ":1.25}
						},
						{"i":-1, "j": 1, "properties":{
							"animName":"toil",
							"animDir":"dr",
							"offsetI":-0.25,
							"offsetJ":0.75}
						}
					]
				},
				{
					"type":"behaviour",
					"class":"FieldBehaviour",
					"levels":2,
					"produceCount":20,
					"harvestTime":60,
					"mustPlant":false,
					"produce":["Apple","Banana","Grapes"]
				},
				{
					"type":"behaviour",
					"class":"FieldPersistBehaviour"
				},
				{
					"type":"behaviour",
					"class":"MovableBehaviour",
					"placeOnTopOf":[],
					"w":1,
					"h":1
				},
				{
					"type":"behaviour",
					"class":"ProgressBehaviour",
					"useColors":false
				}
			]
		}
	]
}