{
	"parts":
	[
		{
			"type":"gameObject",
			"tags":["piggy"],
			"components":
			[
				
				{
					"type":"behaviour",
					"class":"PiggyPersistBehaviour"
				},
				{
					"type":"behaviour",
					"class":"PiggyTasksBehaviour"
				},
				{
					"type":"behaviour",
					"class":"TappableBehaviour",
					"sound":"SO_Piggy_select"
				},
				{
					"type":"behaviour",
					"class":"SelectionRingBehaviour"
				},
				{
					"type":"behaviour",
					"class":"AnimationSwitcherBehaviour"
				},
				{
					"type":"behaviour",
					"class":"PiggyUiBehaviour"
				},
				{
					"type":"behaviour",
					"class":"PiggyInventoryBehaviour"
				},
				{
					"type":"behaviour",
					"class":"PiggyCounterBehaviour"
				},
				{
					"type":"behaviour",
					"class":"PiggyPropertiesBehaviour",
					"name":			"Pigpocket pig",
					"speed":		8,
					"sales":		2,
					"relaxation":	7,
					"guarding":		8,
					"prepping":		5,
					"gathering":	6,
					"icon":			"ThiefpigHorizontalDown0001"
				},
				{
					"type":"taskTarget",
					"modelSpaceBounds":{"i":0,"j":0,"w":0,"h":0},
					"taskType":"useField",
					"slots":[
						{"i": 0, "j":-1, "properties":{
							"animName":"toil",
							"animDir":"dl",
							"offsetI":0.25,
							"offsetJ":-0.25}
						}
					]
				},
				{
					"type":"isoSprite",
					"i":0,
					"j":0,
					"modelSpaceBounds":{"i":-0.08,"j":-0.125,"w":0.3,"h":0.25},
					"properties":
					{
						"touchGroup":true,
						"useHandCursor":true
					},
					"children":
					[
						{
							"type":"image",
							"texture":"pigSelector",
							"x":-14,
							"y":-24,
							"properties":
							{
								"name":"ring",
								"visible":false
							}
						},

						{
							"type":"image",
							"texture":"bar_bg",
							"x":-7,
							"y":-24,
							"properties":
							{
								"name":"bar_bg",
								"touchable":false
							}
						},
						{
							"type":"image",
							"texture":"bar",
							"x":-7,
							"y":-24,
							"properties":
							{
								"name":"bar",
								"touchable":false
							}
						},
						

						{
							"type":"image",
							"texture":"piggy_balloon",
							"x":-33,
							"y":-59,
							"properties":
							{
								"name":"piggy_balloon",
								"touchable":false
							}
						},
						{
							"type":"image",
							"texture":"bar_sleep",
							"x":-25,
							"y":-24,
							"properties":
							{
								"name":"bar_sleep",
								"touchable":false
							}
						},
						{
							"type":"image",
							"texture":"bar_hungry",
							"x":-25,
							"y":-29,
							"properties":
							{
								"name":"bar_hungry",
								"touchable":false
							}
						},

						{
							"type":"movieClip",
							"texturePrefix":"ThiefpigHorizontalDown0",
							"x":-8,
							"y":-8,
							"fps":24,
							"properties":
							{
								"name":"normal_dr",
								"visible":true
							}
						},
						{
							"type":"movieClip",
							"texturePrefix":"ThiefpigHorizontalDown0",
							"x": 8,
							"y":-8,
							"fps":24,
							"properties":
							{
								"name":"normal_dl",
								"visible":false,
								"scaleX":-1
							}
						},
						{
							"type":"movieClip",
							"texturePrefix":"ThiefpigHorizontalTop0",
							"x":-8,
							"y":-12,
							"fps":24,
							"properties":
							{
								"name":"normal_ur",
								"visible":false
							}
						},
						{
							"type":"movieClip",
							"texturePrefix":"ThiefpigHorizontalTop0",
							"x": 8,
							"y":-12,
							"fps":24,
							"properties":
							{
								"name":"normal_ul",
								"visible":false,
								"scaleX":-1
							}
						},

						{
							"type":"movieClip",
							"texturePrefix":"ThiefpigHorizontalDownLoaded0",
							"x":-8,
							"y":-8,
							"fps":24,
							"properties":
							{
								"name":"normal_dr_loaded",
								"visible":false
							}
						},
						{
							"type":"movieClip",
							"texturePrefix":"ThiefpigHorizontalDownLoaded0",
							"x": 8,
							"y":-8,
							"fps":24,
							"properties":
							{
								"name":"normal_dl_loaded",
								"visible":false,
								"scaleX":-1
							}
						},
						{
							"type":"movieClip",
							"texturePrefix":"ThiefpigHorizontalTopLoaded0",
							"x":-8,
							"y":-12,
							"fps":24,
							"properties":
							{
								"name":"normal_ur_loaded",
								"visible":false
							}
						},
						{
							"type":"movieClip",
							"texturePrefix":"ThiefpigHorizontalTopLoaded0",
							"x": 8,
							"y":-12,
							"fps":24,
							"properties":
							{
								"name":"normal_ul_loaded",
								"visible":false,
								"scaleX":-1
							}
						},

						{
							"type":"movieClip",
							"texturePrefix":"ThiefpigVerticalWorking0",
							"x": -7.5,
							"y": -20,
							"fps":24,
							"properties":
							{
								"name":"working_ul",
								"visible":false
							}
						},

						{
							"type":"movieClip",
							"texturePrefix":"ThiefpigVerticalWorking0",
							"x": -7.5,
							"y": -20,
							"fps":24,
							"properties":
							{
								"name":"working_ul_loaded",
								"visible":false
							}
						},

						{
							"type":"movieClip",
							"texturePrefix":"ThiefpigToilDown0",
							"x":-8,
							"y":-8,
							"fps":24,
							"properties":
							{
								"name":"toil_dr",
								"visible":false
							}
						},
						{
							"type":"movieClip",
							"texturePrefix":"ThiefpigToilDown0",
							"x": 8,
							"y":-8,
							"fps":24,
							"properties":
							{
								"name":"toil_dl",
								"visible":false,
								"scaleX":-1
							}
						},
						{
							"type":"movieClip",
							"texturePrefix":"ThiefpigToilUp0",
							"x":-8,
							"y":-12,
							"fps":24,
							"properties":
							{
								"name":"toil_ur",
								"visible":false
							}
						},
						{
							"type":"movieClip",
							"texturePrefix":"ThiefpigToilUp0",
							"x": 8,
							"y":-12,
							"fps":24,
							"properties":
							{
								"name":"toil_ul",
								"visible":false,
								"scaleX":-1
							}
						},

						{
							"type":"movieClip",
							"texturePrefix":"ThiefpigToilDownLoaded0",
							"x":-8,
							"y":-8,
							"fps":24,
							"properties":
							{
								"name":"toil_dr_loaded",
								"visible":false
							}
						},
						{
							"type":"movieClip",
							"texturePrefix":"ThiefpigToilDownLoaded0",
							"x": 8,
							"y":-8,
							"fps":24,
							"properties":
							{
								"name":"toil_dl_loaded",
								"visible":false,
								"scaleX":-1
							}
						},
						{
							"type":"movieClip",
							"texturePrefix":"ThiefpigToilUpLoaded0",
							"x":-8,
							"y":-12,
							"fps":24,
							"properties":
							{
								"name":"toil_ur_loaded",
								"visible":false
							}
						},
						{
							"type":"movieClip",
							"texturePrefix":"ThiefpigToilUpLoaded0",
							"x": 8,
							"y":-12,
							"fps":24,
							"properties":
							{
								"name":"toil_ul_loaded",
								"visible":false,
								"scaleX":-1
							}
						},
						{
							"type":"movieClip",
							"texturePrefix":"ThiefpigRelaxMudHorizontalDown0",
							"x":-8,
							"y":-8,
							"fps":24,
							"properties":
							{
								"name":"relaxMud_dr",
								"visible":false
							}
						},
						{
							"type":"movieClip",
							"texturePrefix":"ThiefpigRelaxMudHorizontalDownLoaded0",
							"x":-8,
							"y":-8,
							"fps":24,
							"properties":
							{
								"name":"relaxMud_dr_loaded",
								"visible":false
							}
						},
						{
							"type":"movieClip",
							"texturePrefix":"ThiefpigRelaxMudHorizontalDown0",
							"x": 10,
							"y":-11,
							"fps":24,
							"properties":
							{
								"name":"relaxMud_dl",
								"visible":false,
								"scaleX":-1
							}
						},
						{
							"type":"movieClip",
							"texturePrefix":"ThiefpigRelaxMudHorizontalDownLoaded0",
							"x": 10,
							"y":-11,
							"fps":24,
							"properties":
							{
								"name":"relaxMud_dl_loaded",
								"visible":false,
								"scaleX":-1
							}
						},
						{
							"type":"movieClip",
							"texturePrefix":"ThiefpigRelaxMudHorizontalUp0",
							"x":-9,
							"y":-11,
							"fps":24,
							"properties":
							{
								"name":"relaxMud_ur",
								"visible":false
							}
						},
						{
							"type":"movieClip",
							"texturePrefix":"ThiefpigRelaxMudHorizontalUpLoaded0",
							"x":-9,
							"y":-11,
							"fps":24,
							"properties":
							{
								"name":"relaxMud_ur_loaded",
								"visible":false
							}
						},
						{
							"type":"movieClip",
							"texturePrefix":"ThiefpigRelaxMudHorizontalUp0",
							"x": 8,
							"y":-12,
							"fps":24,
							"properties":
							{
								"name":"relaxMud_ul",
								"visible":false,
								"scaleX":-1
							}
						},
						{
							"type":"movieClip",
							"texturePrefix":"ThiefpigRelaxMudHorizontalUpLoaded0",
							"x": 8,
							"y":-12,
							"fps":24,
							"properties":
							{
								"name":"relaxMud_ul_loaded",
								"visible":false,
								"scaleX":-1
							}
						},
						{
							"type":"movieClip",
							"texturePrefix":"ThiefpigSleepDown0",
							"x":-8,
							"y":-8,
							"fps":24,
							"properties":
							{
								"name":"sleeping_dr",
								"visible":false
							}
						},
						{
							"type":"movieClip",
							"texturePrefix":"ThiefpigSleepDownLoaded0",
							"x":-8,
							"y":-8,
							"fps":24,
							"properties":
							{
								"name":"sleeping_dr_loaded",
								"visible":false
							}
						},
						{
							"type":"movieClip",
							"texturePrefix":"ThiefpigSleepDown0",
							"x": 10,
							"y":-11,
							"fps":24,
							"properties":
							{
								"name":"sleeping_dl",
								"visible":false,
								"scaleX":-1
							}
						},
						{
							"type":"movieClip",
							"texturePrefix":"ThiefpigSleepDownLoaded0",
							"x": 10,
							"y":-11,
							"fps":24,
							"properties":
							{
								"name":"sleeping_dl_loaded",
								"visible":false,
								"scaleX":-1
							}
						},
						{
							"type":"movieClip",
							"texturePrefix":"ThiefpigSleepUp0",
							"x":-9,
							"y":-11,
							"fps":24,
							"properties":
							{
								"name":"sleeping_ur",
								"visible":false
							}
						},
						{
							"type":"movieClip",
							"texturePrefix":"ThiefpigSleepUpLoaded0",
							"x":-9,
							"y":-11,
							"fps":24,
							"properties":
							{
								"name":"sleeping_ur_loaded",
								"visible":false
							}
						},
						{
							"type":"movieClip",
							"texturePrefix":"ThiefpigSleepUp0",
							"x": 8,
							"y":-12,
							"fps":24,
							"properties":
							{
								"name":"sleeping_ul",
								"visible":false,
								"scaleX":-1
							}
						},
						{
							"type":"movieClip",
							"texturePrefix":"ThiefpigSleepUpLoaded0",
							"x": 8,
							"y":-12,
							"fps":24,
							"properties":
							{
								"name":"sleeping_ul_loaded",
								"visible":false,
								"scaleX":-1
							}
						},
						{
							"type":"movieClip",
							"texturePrefix":"ThiefpigQuestioning0",
							"x":-6,
							"y":-18,
							"fps":24,
							"properties":
							{
								"name":"questioning_ul",
								"visible":false
							}
						},
						{
							"type":"movieClip",
							"texturePrefix":"ThiefpigQuestioningLoaded0",
							"x":-6,
							"y":-18,
							"fps":24,
							"properties":
							{
								"name":"questioning_ul_loaded",
								"visible":false
							}
						},

						{
							"type":"image",
							"texture":"thoughtbubble",
							"x":-8,
							"y":-35,
							"properties":
							{
								"name":"bubble",
								"visible":false
							}
						},
						{
							"type":"image",
							"texture":"hungerthought",
							"x":-8,
							"y":-35,
							"properties":
							{
								"name":"hungericon",
								"visible":false
							}
						},
						{
							"type":"image",
							"texture":"sleepthought",
							"x":-8,
							"y":-35,
							"properties":
							{
								"name":"sleepicon",
								"visible":false
							}
						},
						
						
						{
							"type":"image",
							"texture":"questionBalloon",
							"x":8,
							"y":-28,
							"properties":
							{
								"name":"questionBalloon",
								"visible":false
							}
						},
						{
							"type":"image",
							"texture":"Lupin",
							"x":18,
							"y":-27,
							"properties":
							{
								"name":"questionIcon",
								"visible":false
							}
						},
						{
							"type":"image",
							"texture":"icon-bg",
							"x":-6,
							"y":0,
							"properties":
							{
								"name":"takeIconBg",
								"visible":false
							}
						},
						{
							"type":"image",
							"texture":"Lupin",
							"x":-4,
							"y":0,
							"properties":
							{
								"name":"takeIcon",
								"visible":false
							}
						}
					]
				}
			]
		}
	]
}