{
	"parts":
	[
		{
			"type":"gameObject",
			"tags":["road"],
			"components":
			[
				{
					"type":"behaviour",
					"class":"UpgradableBehaviour",
					"description":"Make's the road better, so piggies can move faster.",
					"cost":10,
					"recipe":"roadLvl3"
				},
				{
					"type":"isoSprite",
					"i":0,
					"j":0,
					"layer":"below",
					"modelSpaceBounds":{"i":0.035,"j":0.035,"w":0.93,"h":0.93},
					"properties":{"touchable":true,"touchGroup":false},
					"children":
					[
						{
							"type":"image",
							"texture":"roadLVL2",
							"x":-33.5,
							"y":-0.5,
							"properties":{"touchable":false}
						},
						{
							"type":"image",
							"texture":"upgrade",
							"x":-15,
							"y":-6,
							"properties":{"name":"upgrade", "visible":false, "touchable":true, "useHandCursor":true}
						},
						{
							"type":"image",
							"texture":"move",
							"x":3,
							"y":-6,
							"properties":{"name":"move", "visible":false, "touchable":true, "useHandCursor":true}
						}
					]
				},
				{
					"type":"taskTarget",
					"modelSpaceBounds":{"i":0,"j":0,"w":1,"h":1},
					"taskType":"walk"
				},
				{
					"type":"behaviour",
					"class":"MovableBehaviour",
					"placeOnTopOf":[],
					"w":1,
					"h":1
				}
			]
		}
	]
}