{
	"parts":
	[
		{
			"type":"gameObject",
			"tags":["statue"],
			"components":
			[
				{
					"type":"behaviour",
					"class":"UpgradableBehaviour",
					"description":"Upgrade your guard post, to increase its view range",
					"cost":1360,
					"recipe":"statueLvl3"
				},
				{
					"type":"isoSprite",
					"i":0,
					"j":0,
					"layer":"below",
					"modelSpaceBounds":{"i":0,"j":0,"w":1,"h":1},
					"properties":{"touchable":true,"touchGroup":false},
					"children":
					[
						{
							"type":"image",
							"texture":"statueLVL2",
							"x":-32,
							"y":-16,
							"properties":{"touchable":false}
						},
						{
							"type":"image",
							"texture":"upgrade",
							"x":-24,
							"y":-16,
							"properties":{"name":"upgrade", "visible":false, "touchable":true, "useHandCursor":true}
						},
						{
							"type":"image",
							"texture":"move",
							"x":-6,
							"y":-16,
							"properties":{"name":"move", "visible":false, "touchable":true, "useHandCursor":true}
						},
						{
							"type":"image",
							"texture":"range",
							"x":-15,
							"y":5,
							"properties":{"name":"range", "visible":false, "touchable":false, "useHandCursor":false, "alpha":0.4}
						},
						{
							"type":"image",
							"texture":"rangeIcon",
							"x":12,
							"y":-16,
							"properties":{"name":"showRange", "visible":false, "touchable":true, "useHandCursor":true, "alpha":1.0}
						}
					]
				},
				{
					"type":"specialNodeBlock",
					"i":0,
					"j":0,
					"w":2,
					"h":2,
					"blockUp":true,
					"blockDown":true,
					"blockLeft":true,
					"blockRight":true,
					"occupiedType":"*"
				},
				{
					"type":"taskTarget",
					"modelSpaceBounds":{"i":0,"j":0,"w":1,"h":1},
					"taskType":"guard",
					"slots":
					[
						{"i": 0, "j":-1, "properties":{
							"animName":"questioning",
							"animDir":"ul",
							"offsetI":0.25,
							"offsetJ":-0.25}
						}
					]
				},
				{
					"type":"behaviour",
					"class":"GuardBehaviour",
					"range":5
				},
				{
					"type":"behaviour",
					"class":"MovableBehaviour",
					"placeOnTopOf":[],
					"w":1,
					"h":1
				}
			]
		}
	]
}